// Jest Snapshot v1, https://goo.gl/fbAQLP

exports[`Filter model Inits normally 1`] = `
Object {
  "description": "description",
  "key": "name",
  "possibleValues": undefined,
  "type": "input",
  "value": null,
}
`;
